[
    {
        "name": "Harry Potter est la chambre des secrets",
        "duration": "02.20",
        "price": 5.8
    },
    {
       "name": "Le seigneur des anneaux: Le retour du roi",
        "duration": "02.30",
        "price": 6.7
    },
    {
        "name": "Bilbo le Hobbit",
        "duration": "02.40",
        "price": 10.6
    }
]